<svg width="479" height="381" viewBox="0 0 479 381" fill="none" xmlns="http://www.w3.org/2000/svg">
<path d="M99.4841 179.873C99.386 179.33 98.8659 178.969 98.3224 179.067L89.4655 180.666C88.922 180.764 88.5609 181.284 88.659 181.827C88.7571 182.371 89.2773 182.732 89.8208 182.634L97.6935 181.213L99.1146 189.086C99.2127 189.629 99.7328 189.99 100.276 189.892C100.82 189.794 101.181 189.274 101.083 188.73L99.4841 179.873ZM77.1344 212.582L99.3215 180.621L97.6785 179.481L75.4915 211.442L77.1344 212.582Z" fill="#FF0000"/>
<path d="M367.097 169.056C366.547 169.002 366.058 169.404 366.005 169.954L365.131 178.911C365.077 179.461 365.479 179.95 366.029 180.004C366.578 180.057 367.068 179.655 367.121 179.106L367.898 171.143L375.86 171.92C376.41 171.974 376.899 171.572 376.953 171.022C377.006 170.473 376.604 169.984 376.055 169.93L367.097 169.056ZM404.112 213.615L367.772 169.416L366.228 170.686L402.567 214.885L404.112 213.615Z" fill="#0000FF"/>
<circle cx="402.984" cy="213.639" r="6.5" transform="rotate(-75.1762 402.984 213.639)" fill="white" stroke="#0000FF" stroke-width="2"/>
<circle cx="76.8353" cy="211.535" r="6.5" transform="rotate(2.62224 76.8353 211.535)" fill="white" stroke="#FF0000" stroke-width="2"/>
<circle cx="282.5" cy="77.5511" r="5" fill="white" stroke="black"/>
<circle cx="119.835" cy="157.835" r="6.5" transform="rotate(2.62224 119.835 157.835)" fill="white" stroke="#F40000" stroke-width="2"/>
<circle cx="184.835" cy="106.835" r="6.5" transform="rotate(2.62224 184.835 106.835)" fill="white" stroke="#F40000" stroke-width="2"/>
<circle cx="154.835" cy="128.835" r="6.5" transform="rotate(2.62224 154.835 128.835)" fill="white" stroke="#F40000" stroke-width="2"/>
<circle cx="218.835" cy="90.8353" r="6.5" transform="rotate(2.62224 218.835 90.8353)" fill="white" stroke="#F40000" stroke-width="2"/>
<circle cx="254.835" cy="82.8353" r="6.5" transform="rotate(2.62224 254.835 82.8353)" fill="white" stroke="#F40000" stroke-width="2"/>
<circle cx="283.835" cy="78.8353" r="5.5" transform="rotate(2.62224 283.835 78.8353)" fill="white" stroke="#F40000" stroke-width="4"/>
<circle cx="467.835" cy="298.835" r="6.5" transform="rotate(2.62224 467.835 298.835)" fill="white" stroke="#001AFF" stroke-width="2"/>
<circle cx="331.835" cy="127.835" r="6.5" transform="rotate(2.62224 331.835 127.835)" fill="white" stroke="#001AFF" stroke-width="2"/>
<circle cx="260.835" cy="58.8353" r="5.5" transform="rotate(2.62224 260.835 58.8353)" fill="white" stroke="#001AFF" stroke-width="4"/>
<circle cx="48.8353" cy="256.835" r="6.5" transform="rotate(2.62224 48.8353 256.835)" fill="white" stroke="#F40000" stroke-width="2"/>
<circle cx="7.83526" cy="372.835" r="6.5" transform="rotate(2.62224 7.83526 372.835)" fill="white" stroke="#F40000" stroke-width="2"/>
<circle cx="23.8353" cy="314.835" r="6.5" transform="rotate(2.62224 23.8353 314.835)" fill="white" stroke="#F40000" stroke-width="2"/>
<path d="M268.98 47.5004C268.704 47.5114 268.489 47.7441 268.5 48.02L268.68 52.5164C268.691 52.7923 268.924 53.007 269.2 52.996C269.476 52.985 269.69 52.7523 269.679 52.4764L269.52 48.4796L273.516 48.3197C273.792 48.3087 274.007 48.0761 273.996 47.8002C273.985 47.5242 273.752 47.3095 273.476 47.3205L268.98 47.5004ZM295.02 72.4996C295.296 72.4886 295.511 72.2559 295.5 71.98L295.32 67.4836C295.309 67.2077 295.076 66.993 294.8 67.004C294.524 67.015 294.31 67.2477 294.321 67.5236L294.48 71.5204L290.484 71.6803C290.208 71.6913 289.993 71.9239 290.004 72.1998C290.015 72.4758 290.248 72.6905 290.524 72.6795L295.02 72.4996ZM268.661 48.3674L294.661 72.3674L295.339 71.6326L269.339 47.6326L268.661 48.3674Z" fill="black"/>
</svg>
