\relax 
\providecommand\hyper@newdestlabel[2]{}
\providecommand{\transparent@use}[1]{}
\providecommand\HyperFirstAtBeginDocument{\AtBeginDocument}
\HyperFirstAtBeginDocument{\ifx\hyper@anchor\@undefined
\global\let\oldcontentsline\contentsline
\gdef\contentsline#1#2#3#4{\oldcontentsline{#1}{#2}{#3}}
\global\let\oldnewlabel\newlabel
\gdef\newlabel#1#2{\newlabelxx{#1}#2}
\gdef\newlabelxx#1#2#3#4#5#6{\oldnewlabel{#1}{{#2}{#3}}}
\AtEndDocument{\ifx\hyper@anchor\@undefined
\let\contentsline\oldcontentsline
\let\newlabel\oldnewlabel
\fi}
\fi}
\global\let\hyper@last\relax 
\gdef\HyperFirstAtBeginDocument#1{#1}
\providecommand\HyField@AuxAddToFields[1]{}
\providecommand\HyField@AuxAddToCoFields[2]{}
\providecommand\babel@aux[2]{}
\@nameuse{bbl@beforestart}
\catcode `:\active 
\catcode `;\active 
\catcode `!\active 
\catcode `?\active 
\pgfsyspdfmark {pgfid7}{4736286}{13164651}
\providecommand \oddpage@label [2]{}
\babel@aux{french}{}
\@writefile{nav}{\headcommand {\slideentry {0}{0}{1}{1/1}{}{0}}}
\@writefile{nav}{\headcommand {\beamer@framepages {1}{1}}}
\pgfsyspdfmark {pgfid14}{4736286}{13164651}
\newlabel{toc<1>}{{2}{2}{}{Doc-Start}{}}
\@writefile{snm}{\beamer@slide {toc<1>}{2}}
\newlabel{toc}{{2}{2}{}{Doc-Start}{}}
\@writefile{snm}{\beamer@slide {toc}{2}}
\@writefile{nav}{\headcommand {\slideentry {0}{0}{2}{2/2}{}{0}}}
\@writefile{nav}{\headcommand {\beamer@framepages {2}{2}}}
\pgfsyspdfmark {pgfid21}{4736286}{13164651}
\@writefile{toc}{\beamer@sectionintoc {1}{Contexte}{3}{0}{1}}
\@writefile{nav}{\headcommand {\beamer@sectionpages {1}{2}}}
\@writefile{nav}{\headcommand {\beamer@subsectionpages {1}{2}}}
\@writefile{nav}{\headcommand {\sectionentry {1}{Contexte}{3}{Contexte}{0}}}
\@writefile{nav}{\headcommand {\slideentry {1}{0}{1}{3/3}{}{0}}}
\@writefile{nav}{\headcommand {\beamer@framepages {3}{3}}}
\pgfsyspdfmark {pgfid28}{4736286}{13164651}
\@writefile{toc}{\beamer@subsectionintoc {1}{1}{Le problème}{4}{0}{1}}
\@writefile{nav}{\headcommand {\beamer@subsectionpages {3}{3}}}
\@writefile{nav}{\headcommand {\beamer@subsectionentry {0}{1}{1}{4}{Le problème}}}
\newlabel{1<1>}{{4}{4}{Le problème}{Doc-Start}{}}
\@writefile{snm}{\beamer@slide {1<1>}{4}}
\newlabel{1}{{4}{4}{Le problème}{Doc-Start}{}}
\@writefile{snm}{\beamer@slide {1}{4}}
\@writefile{nav}{\headcommand {\slideentry {1}{1}{1}{4/4}{Le problème}{0}}}
\@writefile{nav}{\headcommand {\beamer@framepages {4}{4}}}
\pgfsyspdfmark {pgfid35}{4736286}{13164651}
\newlabel{2<1>}{{5}{5}{Le problème}{Doc-Start}{}}
\@writefile{snm}{\beamer@slide {2<1>}{5}}
\newlabel{2}{{5}{5}{Le problème}{Doc-Start}{}}
\@writefile{snm}{\beamer@slide {2}{5}}
\@writefile{nav}{\headcommand {\slideentry {1}{1}{2}{5/5}{Le problème}{0}}}
\@writefile{nav}{\headcommand {\beamer@framepages {5}{5}}}
\pgfsyspdfmark {pgfid42}{4736286}{13164651}
\@writefile{toc}{\beamer@subsectionintoc {1}{2}{Abstraction et travail en 2D}{6}{0}{1}}
\@writefile{nav}{\headcommand {\beamer@subsectionpages {4}{5}}}
\@writefile{nav}{\headcommand {\beamer@subsectionentry {0}{1}{2}{6}{Abstraction et travail en 2D}}}
\newlabel{3<1>}{{6}{6}{Abstraction et travail en 2D}{Doc-Start}{}}
\@writefile{snm}{\beamer@slide {3<1>}{6}}
\newlabel{3}{{6}{6}{Abstraction et travail en 2D}{Doc-Start}{}}
\@writefile{snm}{\beamer@slide {3}{6}}
\@writefile{nav}{\headcommand {\slideentry {1}{2}{1}{6/6}{Abstraction et travail en 2D}{0}}}
\@writefile{nav}{\headcommand {\beamer@framepages {6}{6}}}
\pgfsyspdfmark {pgfid49}{4736286}{13164651}
\@writefile{toc}{\beamer@subsectionintoc {1}{3}{Différence a priori ou a posteriori}{7}{0}{1}}
\@writefile{nav}{\headcommand {\beamer@subsectionpages {6}{6}}}
\@writefile{nav}{\headcommand {\beamer@subsectionentry {0}{1}{3}{7}{Différence a priori ou a posteriori}}}
\newlabel{4<1>}{{7}{7}{Différence a priori ou a posteriori}{Doc-Start}{}}
\@writefile{snm}{\beamer@slide {4<1>}{7}}
\newlabel{4}{{7}{7}{Différence a priori ou a posteriori}{Doc-Start}{}}
\@writefile{snm}{\beamer@slide {4}{7}}
\@writefile{nav}{\headcommand {\slideentry {1}{3}{1}{7/7}{Différence a priori ou a posteriori}{0}}}
\@writefile{nav}{\headcommand {\beamer@framepages {7}{7}}}
\pgfsyspdfmark {pgfid56}{4736286}{13164651}
\@writefile{toc}{\beamer@subsectionintoc {1}{4}{Un premier algorithme}{8}{0}{1}}
\@writefile{nav}{\headcommand {\beamer@subsectionpages {7}{7}}}
\@writefile{nav}{\headcommand {\beamer@subsectionentry {0}{1}{4}{8}{Un premier algorithme}}}
\newlabel{5<1>}{{8}{8}{Un premier algorithme}{Doc-Start}{}}
\@writefile{snm}{\beamer@slide {5<1>}{8}}
\newlabel{5}{{8}{8}{Un premier algorithme}{Doc-Start}{}}
\@writefile{snm}{\beamer@slide {5}{8}}
\@writefile{loa}{\contentsline {algocf}{\numberline {1}{\ignorespaces Algorithme de détection de collision naif}}{8}{}\protected@file@percent }
\@writefile{nav}{\headcommand {\slideentry {1}{4}{1}{8/8}{Un premier algorithme}{0}}}
\@writefile{nav}{\headcommand {\beamer@framepages {8}{8}}}
\pgfsyspdfmark {pgfid63}{4736286}{13164651}
\@writefile{toc}{\beamer@sectionintoc {2}{Structures et algorithmes pour l'indexation spatiale}{9}{0}{2}}
\@writefile{nav}{\headcommand {\beamer@sectionpages {3}{8}}}
\@writefile{nav}{\headcommand {\beamer@subsectionpages {8}{8}}}
\@writefile{nav}{\headcommand {\sectionentry {2}{Structures et algorithmes pour l'indexation spatiale}{9}{Structures et algorithmes pour l'indexation spatiale}{0}}}
\@writefile{nav}{\headcommand {\slideentry {2}{0}{1}{9/9}{}{0}}}
\@writefile{nav}{\headcommand {\beamer@framepages {9}{9}}}
\pgfsyspdfmark {pgfid72}{4736286}{13164651}
\@writefile{toc}{\beamer@subsectionintoc {2}{1}{Les arbres k-d (K-d Trees)}{10}{0}{2}}
\@writefile{nav}{\headcommand {\beamer@subsectionpages {9}{9}}}
\@writefile{nav}{\headcommand {\beamer@subsectionentry {0}{2}{1}{10}{Les arbres k-d (K-d Trees)}}}
\newlabel{build_kd_tree_init<1>}{{10}{10}{Les arbres k-d (K-d Trees)}{Doc-Start}{}}
\@writefile{snm}{\beamer@slide {build_kd_tree_init<1>}{10}}
\newlabel{build_kd_tree_init}{{10}{10}{Les arbres k-d (K-d Trees)}{Doc-Start}{}}
\@writefile{snm}{\beamer@slide {build_kd_tree_init}{10}}
\@writefile{nav}{\headcommand {\slideentry {2}{1}{1}{10/10}{Les arbres k-d (K-d Trees)}{0}}}
\@writefile{nav}{\headcommand {\beamer@framepages {10}{10}}}
\pgfsyspdfmark {pgfid81}{4736286}{13164651}
\newlabel{build_kd_tree_0<1>}{{11}{11}{Les arbres k-d (K-d Trees)}{Doc-Start}{}}
\@writefile{snm}{\beamer@slide {build_kd_tree_0<1>}{11}}
\newlabel{build_kd_tree_0}{{11}{11}{Les arbres k-d (K-d Trees)}{Doc-Start}{}}
\@writefile{snm}{\beamer@slide {build_kd_tree_0}{11}}
\@writefile{nav}{\headcommand {\slideentry {2}{1}{2}{11/11}{Les arbres k-d (K-d Trees)}{0}}}
\@writefile{nav}{\headcommand {\beamer@framepages {11}{11}}}
\pgfsyspdfmark {pgfid90}{4736286}{13164651}
\newlabel{build_kd_tree_1<1>}{{12}{12}{Les arbres k-d (K-d Trees)}{Doc-Start}{}}
\@writefile{snm}{\beamer@slide {build_kd_tree_1<1>}{12}}
\newlabel{build_kd_tree_1}{{12}{12}{Les arbres k-d (K-d Trees)}{Doc-Start}{}}
\@writefile{snm}{\beamer@slide {build_kd_tree_1}{12}}
\@writefile{nav}{\headcommand {\slideentry {2}{1}{3}{12/12}{Les arbres k-d (K-d Trees)}{0}}}
\@writefile{nav}{\headcommand {\beamer@framepages {12}{12}}}
\pgfsyspdfmark {pgfid99}{4736286}{13164651}
\newlabel{build_kd_tree_2<1>}{{13}{13}{Les arbres k-d (K-d Trees)}{Doc-Start}{}}
\@writefile{snm}{\beamer@slide {build_kd_tree_2<1>}{13}}
\newlabel{build_kd_tree_2}{{13}{13}{Les arbres k-d (K-d Trees)}{Doc-Start}{}}
\@writefile{snm}{\beamer@slide {build_kd_tree_2}{13}}
\@writefile{nav}{\headcommand {\slideentry {2}{1}{4}{13/13}{Les arbres k-d (K-d Trees)}{0}}}
\@writefile{nav}{\headcommand {\beamer@framepages {13}{13}}}
\pgfsyspdfmark {pgfid108}{4736286}{13164651}
\newlabel{build_kd_tree_final<1>}{{14}{14}{Les arbres k-d (K-d Trees)}{Doc-Start}{}}
\@writefile{snm}{\beamer@slide {build_kd_tree_final<1>}{14}}
\newlabel{build_kd_tree_final}{{14}{14}{Les arbres k-d (K-d Trees)}{Doc-Start}{}}
\@writefile{snm}{\beamer@slide {build_kd_tree_final}{14}}
\@writefile{nav}{\headcommand {\slideentry {2}{1}{5}{14/14}{Les arbres k-d (K-d Trees)}{0}}}
\@writefile{nav}{\headcommand {\beamer@framepages {14}{14}}}
\pgfsyspdfmark {pgfid117}{4736286}{13164651}
\newlabel{search_kd_tree_init<1>}{{15}{15}{Les arbres k-d (K-d Trees)}{Doc-Start}{}}
\@writefile{snm}{\beamer@slide {search_kd_tree_init<1>}{15}}
\newlabel{search_kd_tree_init}{{15}{15}{Les arbres k-d (K-d Trees)}{Doc-Start}{}}
\@writefile{snm}{\beamer@slide {search_kd_tree_init}{15}}
\@writefile{nav}{\headcommand {\slideentry {2}{1}{6}{15/15}{Les arbres k-d (K-d Trees)}{0}}}
\@writefile{nav}{\headcommand {\beamer@framepages {15}{15}}}
\pgfsyspdfmark {pgfid126}{4736286}{13164651}
\newlabel{search_kd_tree_child_radius<1>}{{16}{16}{Les arbres k-d (K-d Trees)}{Doc-Start}{}}
\@writefile{snm}{\beamer@slide {search_kd_tree_child_radius<1>}{16}}
\newlabel{search_kd_tree_child_radius}{{16}{16}{Les arbres k-d (K-d Trees)}{Doc-Start}{}}
\@writefile{snm}{\beamer@slide {search_kd_tree_child_radius}{16}}
\@writefile{nav}{\headcommand {\slideentry {2}{1}{7}{16/16}{Les arbres k-d (K-d Trees)}{0}}}
\@writefile{nav}{\headcommand {\beamer@framepages {16}{16}}}
\pgfsyspdfmark {pgfid135}{4736286}{13164651}
\newlabel{search_kd_tree_grand_child<1>}{{17}{17}{Les arbres k-d (K-d Trees)}{Doc-Start}{}}
\@writefile{snm}{\beamer@slide {search_kd_tree_grand_child<1>}{17}}
\newlabel{search_kd_tree_grand_child}{{17}{17}{Les arbres k-d (K-d Trees)}{Doc-Start}{}}
\@writefile{snm}{\beamer@slide {search_kd_tree_grand_child}{17}}
\@writefile{nav}{\headcommand {\slideentry {2}{1}{8}{17/17}{Les arbres k-d (K-d Trees)}{0}}}
\@writefile{nav}{\headcommand {\beamer@framepages {17}{17}}}
\pgfsyspdfmark {pgfid144}{4736286}{13164651}
\newlabel{search_kd_tree_parent<1>}{{18}{18}{Les arbres k-d (K-d Trees)}{Doc-Start}{}}
\@writefile{snm}{\beamer@slide {search_kd_tree_parent<1>}{18}}
\newlabel{search_kd_tree_parent}{{18}{18}{Les arbres k-d (K-d Trees)}{Doc-Start}{}}
\@writefile{snm}{\beamer@slide {search_kd_tree_parent}{18}}
\@writefile{nav}{\headcommand {\slideentry {2}{1}{9}{18/18}{Les arbres k-d (K-d Trees)}{0}}}
\@writefile{nav}{\headcommand {\beamer@framepages {18}{18}}}
\pgfsyspdfmark {pgfid153}{4736286}{13164651}
\@writefile{toc}{\beamer@subsectionintoc {2}{2}{Les arbres quaternaires (Quad-Tree)}{19}{0}{2}}
\@writefile{nav}{\headcommand {\beamer@subsectionpages {10}{18}}}
\@writefile{nav}{\headcommand {\beamer@subsectionentry {0}{2}{2}{19}{Les arbres quaternaires (Quad-Tree)}}}
\newlabel{build_quad_tree_1<1>}{{19}{19}{Les arbres quaternaires (Quad-Tree)}{Doc-Start}{}}
\@writefile{snm}{\beamer@slide {build_quad_tree_1<1>}{19}}
\newlabel{build_quad_tree_1}{{19}{19}{Les arbres quaternaires (Quad-Tree)}{Doc-Start}{}}
\@writefile{snm}{\beamer@slide {build_quad_tree_1}{19}}
\@writefile{nav}{\headcommand {\slideentry {2}{2}{1}{19/19}{Les arbres quaternaires (Quad-Tree)}{0}}}
\@writefile{nav}{\headcommand {\beamer@framepages {19}{19}}}
\pgfsyspdfmark {pgfid162}{4736286}{13164651}
\newlabel{build_quad_tree_2<1>}{{20}{20}{Les arbres quaternaires (Quad-Tree)}{Doc-Start}{}}
\@writefile{snm}{\beamer@slide {build_quad_tree_2<1>}{20}}
\newlabel{build_quad_tree_2}{{20}{20}{Les arbres quaternaires (Quad-Tree)}{Doc-Start}{}}
\@writefile{snm}{\beamer@slide {build_quad_tree_2}{20}}
\@writefile{nav}{\headcommand {\slideentry {2}{2}{2}{20/20}{Les arbres quaternaires (Quad-Tree)}{0}}}
\@writefile{nav}{\headcommand {\beamer@framepages {20}{20}}}
\pgfsyspdfmark {pgfid171}{4736286}{13164651}
\newlabel{build_quad_tree_4<1>}{{21}{21}{Les arbres quaternaires (Quad-Tree)}{Doc-Start}{}}
\@writefile{snm}{\beamer@slide {build_quad_tree_4<1>}{21}}
\newlabel{build_quad_tree_4}{{21}{21}{Les arbres quaternaires (Quad-Tree)}{Doc-Start}{}}
\@writefile{snm}{\beamer@slide {build_quad_tree_4}{21}}
\@writefile{nav}{\headcommand {\slideentry {2}{2}{3}{21/21}{Les arbres quaternaires (Quad-Tree)}{0}}}
\@writefile{nav}{\headcommand {\beamer@framepages {21}{21}}}
\pgfsyspdfmark {pgfid178}{4736286}{13164651}
\newlabel{search_quad_tree<1>}{{22}{22}{Les arbres quaternaires (Quad-Tree)}{Doc-Start}{}}
\@writefile{snm}{\beamer@slide {search_quad_tree<1>}{22}}
\newlabel{search_quad_tree}{{22}{22}{Les arbres quaternaires (Quad-Tree)}{Doc-Start}{}}
\@writefile{snm}{\beamer@slide {search_quad_tree}{22}}
\@writefile{nav}{\headcommand {\slideentry {2}{2}{4}{22/22}{Les arbres quaternaires (Quad-Tree)}{0}}}
\@writefile{nav}{\headcommand {\beamer@framepages {22}{22}}}
\pgfsyspdfmark {pgfid187}{4736286}{13164651}
\newlabel{optimize_quad_tree<1>}{{23}{23}{Les arbres quaternaires (Quad-Tree)}{Doc-Start}{}}
\@writefile{snm}{\beamer@slide {optimize_quad_tree<1>}{23}}
\newlabel{optimize_quad_tree}{{23}{23}{Les arbres quaternaires (Quad-Tree)}{Doc-Start}{}}
\@writefile{snm}{\beamer@slide {optimize_quad_tree}{23}}
\@writefile{nav}{\headcommand {\slideentry {2}{2}{5}{23/23}{Les arbres quaternaires (Quad-Tree)}{0}}}
\@writefile{nav}{\headcommand {\beamer@framepages {23}{23}}}
\pgfsyspdfmark {pgfid196}{4736286}{13164651}
\@writefile{toc}{\beamer@subsectionintoc {2}{3}{Comparaisons}{24}{0}{2}}
\@writefile{nav}{\headcommand {\beamer@subsectionpages {19}{23}}}
\@writefile{nav}{\headcommand {\beamer@subsectionentry {0}{2}{3}{24}{Comparaisons}}}
\newlabel{optimize_quad_tree<1>}{{24}{24}{Comparaisons}{Doc-Start}{}}
\@writefile{snm}{\beamer@slide {optimize_quad_tree<1>}{24}}
\newlabel{optimize_quad_tree}{{24}{24}{Comparaisons}{Doc-Start}{}}
\@writefile{snm}{\beamer@slide {optimize_quad_tree}{24}}
\@writefile{nav}{\headcommand {\slideentry {2}{3}{1}{24/24}{Comparaisons}{0}}}
\@writefile{nav}{\headcommand {\beamer@framepages {24}{24}}}
\pgfsyspdfmark {pgfid203}{4736286}{13164651}
\@writefile{toc}{\beamer@sectionintoc {3}{Structures et algorithmes pour le mouvement}{25}{0}{3}}
\@writefile{nav}{\headcommand {\beamer@sectionpages {9}{24}}}
\@writefile{nav}{\headcommand {\beamer@subsectionpages {24}{24}}}
\@writefile{nav}{\headcommand {\sectionentry {3}{Structures et algorithmes pour le mouvement}{25}{Structures et algorithmes pour le mouvement}{0}}}
\@writefile{nav}{\headcommand {\slideentry {3}{0}{1}{25/25}{}{0}}}
\@writefile{nav}{\headcommand {\beamer@framepages {25}{25}}}
\pgfsyspdfmark {pgfid210}{4736286}{13164651}
\@writefile{toc}{\beamer@subsectionintoc {3}{1}{La technique "Balayer et émonder"}{26}{0}{3}}
\@writefile{nav}{\headcommand {\beamer@subsectionpages {25}{25}}}
\@writefile{nav}{\headcommand {\beamer@subsectionentry {0}{3}{1}{26}{La technique "Balayer et émonder"}}}
\newlabel{optimize_quad_tree<1>}{{26}{26}{La technique "Balayer et émonder"}{Doc-Start}{}}
\@writefile{snm}{\beamer@slide {optimize_quad_tree<1>}{26}}
\newlabel{optimize_quad_tree}{{26}{26}{La technique "Balayer et émonder"}{Doc-Start}{}}
\@writefile{snm}{\beamer@slide {optimize_quad_tree}{26}}
\@writefile{nav}{\headcommand {\slideentry {3}{1}{1}{26/26}{La technique "Balayer et émonder"}{0}}}
\@writefile{nav}{\headcommand {\beamer@framepages {26}{26}}}
\pgfsyspdfmark {pgfid217}{4736286}{13164651}
\@writefile{toc}{\beamer@subsectionintoc {3}{2}{Boîtes englobantes adaptés à la vitesse}{27}{0}{3}}
\@writefile{nav}{\headcommand {\beamer@subsectionpages {26}{26}}}
\@writefile{nav}{\headcommand {\beamer@subsectionentry {0}{3}{2}{27}{Boîtes englobantes adaptés à la vitesse}}}
\@writefile{toc}{\beamer@sectionintoc {4}{Conclusion}{27}{0}{4}}
\@writefile{nav}{\headcommand {\beamer@sectionpages {25}{26}}}
\@writefile{nav}{\headcommand {\beamer@subsectionpages {27}{26}}}
\@writefile{nav}{\headcommand {\sectionentry {4}{Conclusion}{27}{Conclusion}{0}}}
\@writefile{nav}{\headcommand {\slideentry {4}{0}{1}{27/27}{}{0}}}
\@writefile{nav}{\headcommand {\beamer@framepages {27}{27}}}
\pgfsyspdfmark {pgfid224}{4736286}{13164651}
\newlabel{conclu<1>}{{28}{28}{Conclusion}{Doc-Start}{}}
\@writefile{snm}{\beamer@slide {conclu<1>}{28}}
\newlabel{conclu}{{28}{28}{Conclusion}{Doc-Start}{}}
\@writefile{snm}{\beamer@slide {conclu}{28}}
\@writefile{nav}{\headcommand {\slideentry {4}{0}{2}{28/28}{}{0}}}
\@writefile{nav}{\headcommand {\beamer@framepages {28}{28}}}
\bibstyle{francais}
\bibdata{varia/biblio}
\pgfsyspdfmark {pgfid231}{4736286}{13164651}
\@writefile{nav}{\headcommand {\slideentry {4}{0}{3}{29/29}{}{0}}}
\@writefile{nav}{\headcommand {\beamer@framepages {29}{29}}}
\@writefile{nav}{\headcommand {\beamer@partpages {1}{29}}}
\@writefile{nav}{\headcommand {\beamer@subsectionpages {27}{29}}}
\@writefile{nav}{\headcommand {\beamer@sectionpages {27}{29}}}
\@writefile{nav}{\headcommand {\beamer@documentpages {29}}}
\@writefile{nav}{\headcommand {\gdef \inserttotalframenumber {29}}}
\gdef\svg@ink@ver@settings{{\m@ne }{inkscape}{1}}
\gdef \@abspage@last{29}
